This file contains any messages produced by compilers while
running configure, to aid debugging if configure makes a mistake.

It was created by libtorrent configure 0.13.4, which was
generated by GNU Autoconf 2.69.  Invocation command line was

  $ ./configure --enable-ipv6

## --------- ##
## Platform. ##
## --------- ##

hostname = ns4002282.ip-198-100-147.net
uname -m = x86_64
uname -r = 3.13.0-34-generic
uname -s = Linux
uname -v = #60-Ubuntu SMP Wed Aug 13 15:45:27 UTC 2014

/usr/bin/uname -p = unknown
/bin/uname -X     = unknown

/bin/arch              = unknown
/usr/bin/arch -k       = unknown
/usr/convex/getsysinfo = unknown
/usr/bin/hostinfo      = unknown
/bin/machine           = unknown
/usr/bin/oslevel       = unknown
/bin/universe          = unknown

PATH: /usr/local/sbin
PATH: /usr/local/bin
PATH: /usr/sbin
PATH: /usr/bin
PATH: /sbin
PATH: /bin
PATH: /usr/games
PATH: /usr/lib/jvm/java-8-oracle/bin
PATH: /usr/lib/jvm/java-8-oracle/db/bin
PATH: /usr/lib/jvm/java-8-oracle/jre/bin
PATH: /usr/share/jython/bin


## ----------- ##
## Core tests. ##
## ----------- ##

configure:2661: checking build system type
configure:2675: result: x86_64-unknown-linux-gnu
configure:2695: checking host system type
configure:2708: result: x86_64-unknown-linux-gnu
configure:2749: checking how to print strings
configure:2776: result: printf
configure:2848: checking for gcc
configure:2864: found /usr/bin/gcc
configure:2875: result: gcc
configure:3104: checking for C compiler version
configure:3113: gcc --version >&5
gcc (Ubuntu 4.8.2-19ubuntu1) 4.8.2
Copyright (C) 2013 Free Software Foundation, Inc.
This is free software; see the source for copying conditions.  There is NO
warranty; not even for MERCHANTABILITY or FITNESS FOR A PARTICULAR PURPOSE.

configure:3124: $? = 0
configure:3113: gcc -v >&5
Using built-in specs.
COLLECT_GCC=gcc
COLLECT_LTO_WRAPPER=/usr/lib/gcc/x86_64-linux-gnu/4.8/lto-wrapper
Target: x86_64-linux-gnu
Configured with: ../src/configure -v --with-pkgversion='Ubuntu 4.8.2-19ubuntu1' --with-bugurl=file:///usr/share/doc/gcc-4.8/README.Bugs --enable-languages=c,c++,java,go,d,fortran,objc,obj-c++ --prefix=/usr --program-suffix=-4.8 --enable-shared --enable-linker-build-id --libexecdir=/usr/lib --without-included-gettext --enable-threads=posix --with-gxx-include-dir=/usr/include/c++/4.8 --libdir=/usr/lib --enable-nls --with-sysroot=/ --enable-clocale=gnu --enable-libstdcxx-debug --enable-libstdcxx-time=yes --enable-gnu-unique-object --disable-libmudflap --enable-plugin --with-system-zlib --disable-browser-plugin --enable-java-awt=gtk --enable-gtk-cairo --with-java-home=/usr/lib/jvm/java-1.5.0-gcj-4.8-amd64/jre --enable-java-home --with-jvm-root-dir=/usr/lib/jvm/java-1.5.0-gcj-4.8-amd64 --with-jvm-jar-dir=/usr/lib/jvm-exports/java-1.5.0-gcj-4.8-amd64 --with-arch-directory=amd64 --with-ecj-jar=/usr/share/java/eclipse-ecj.jar --enable-objc-gc --enable-multiarch --disable-werror --with-arch-32=i686 --with-abi=m64 --with-multilib-list=m32,m64,mx32 --with-tune=generic --enable-checking=release --build=x86_64-linux-gnu --host=x86_64-linux-gnu --target=x86_64-linux-gnu
Thread model: posix
gcc version 4.8.2 (Ubuntu 4.8.2-19ubuntu1) 
configure:3124: $? = 0
configure:3113: gcc -V >&5
gcc: error: unrecognized command line option '-V'
gcc: fatal error: no input files
compilation terminated.
configure:3124: $? = 4
configure:3113: gcc -qversion >&5
gcc: error: unrecognized command line option '-qversion'
gcc: fatal error: no input files
compilation terminated.
configure:3124: $? = 4
configure:3144: checking whether the C compiler works
configure:3166: gcc    conftest.c  >&5
configure:3170: $? = 0
configure:3218: result: yes
configure:3221: checking for C compiler default output file name
configure:3223: result: a.out
configure:3229: checking for suffix of executables
configure:3236: gcc -o conftest    conftest.c  >&5
configure:3240: $? = 0
configure:3262: result: 
configure:3284: checking whether we are cross compiling
configure:3292: gcc -o conftest    conftest.c  >&5
configure:3296: $? = 0
configure:3303: ./conftest
configure:3307: $? = 0
configure:3322: result: no
configure:3327: checking for suffix of object files
configure:3349: gcc -c   conftest.c >&5
configure:3353: $? = 0
configure:3374: result: o
configure:3378: checking whether we are using the GNU C compiler
configure:3397: gcc -c   conftest.c >&5
configure:3397: $? = 0
configure:3406: result: yes
configure:3415: checking whether gcc accepts -g
configure:3435: gcc -c -g  conftest.c >&5
configure:3435: $? = 0
configure:3476: result: yes
configure:3493: checking for gcc option to accept ISO C89
configure:3556: gcc  -c -g -O2  conftest.c >&5
configure:3556: $? = 0
configure:3569: result: none needed
configure:3594: checking whether gcc understands -c and -o together
configure:3616: gcc -c conftest.c -o conftest2.o
configure:3619: $? = 0
configure:3616: gcc -c conftest.c -o conftest2.o
configure:3619: $? = 0
configure:3631: result: yes
configure:3648: checking for a sed that does not truncate output
configure:3712: result: /bin/sed
configure:3730: checking for grep that handles long lines and -e
configure:3788: result: /bin/grep
configure:3793: checking for egrep
configure:3855: result: /bin/grep -E
configure:3860: checking for fgrep
configure:3922: result: /bin/grep -F
configure:3957: checking for ld used by gcc
configure:4024: result: /usr/bin/ld
configure:4031: checking if the linker (/usr/bin/ld) is GNU ld
configure:4046: result: yes
configure:4058: checking for BSD- or MS-compatible name lister (nm)
configure:4107: result: /usr/bin/nm -B
configure:4237: checking the name lister (/usr/bin/nm -B) interface
configure:4244: gcc -c -g -O2  conftest.c >&5
configure:4247: /usr/bin/nm -B "conftest.o"
configure:4250: output
0000000000000000 B some_variable
configure:4257: result: BSD nm
configure:4260: checking whether ln -s works
configure:4264: result: yes
configure:4272: checking the maximum length of command line arguments
configure:4402: result: 1572864
configure:4419: checking whether the shell understands some XSI constructs
configure:4429: result: yes
configure:4433: checking whether the shell understands "+="
configure:4439: result: yes
configure:4474: checking how to convert x86_64-unknown-linux-gnu file names to x86_64-unknown-linux-gnu format
configure:4514: result: func_convert_file_noop
configure:4521: checking how to convert x86_64-unknown-linux-gnu file names to toolchain format
configure:4541: result: func_convert_file_noop
configure:4548: checking for /usr/bin/ld option to reload object files
configure:4555: result: -r
configure:4629: checking for objdump
configure:4645: found /usr/bin/objdump
configure:4656: result: objdump
configure:4688: checking how to recognize dependent libraries
configure:4890: result: pass_all
configure:4975: checking for dlltool
configure:5005: result: no
configure:5035: checking how to associate runtime and link libraries
configure:5062: result: printf %s\n
configure:5123: checking for ar
configure:5139: found /usr/bin/ar
configure:5150: result: ar
configure:5187: checking for archiver @FILE support
configure:5204: gcc -c -g -O2  conftest.c >&5
configure:5204: $? = 0
configure:5207: ar cru libconftest.a @conftest.lst >&5
configure:5210: $? = 0
configure:5215: ar cru libconftest.a @conftest.lst >&5
ar: conftest.o: No such file or directory
configure:5218: $? = 1
configure:5230: result: @
configure:5288: checking for strip
configure:5304: found /usr/bin/strip
configure:5315: result: strip
configure:5387: checking for ranlib
configure:5403: found /usr/bin/ranlib
configure:5414: result: ranlib
configure:5491: checking for gawk
configure:5507: found /usr/bin/gawk
configure:5518: result: gawk
configure:5558: checking command to parse /usr/bin/nm -B output from gcc object
configure:5678: gcc -c -g -O2  conftest.c >&5
configure:5681: $? = 0
configure:5685: /usr/bin/nm -B conftest.o \| sed -n -e 's/^.*[ ]\([ABCDGIRSTW][ABCDGIRSTW]*\)[ ][ ]*\([_A-Za-z][_A-Za-z0-9]*\)$/\1 \2 \2/p' | sed '/ __gnu_lto/d' \> conftest.nm
configure:5688: $? = 0
configure:5754: gcc -o conftest -g -O2   conftest.c conftstm.o >&5
configure:5757: $? = 0
configure:5795: result: ok
configure:5832: checking for sysroot
configure:5862: result: no
configure:5939: gcc -c -g -O2  conftest.c >&5
configure:5942: $? = 0
configure:6118: checking for mt
configure:6134: found /bin/mt
configure:6145: result: mt
configure:6168: checking if mt is a manifest tool
configure:6174: mt '-?'
configure:6182: result: no
configure:6824: checking how to run the C preprocessor
configure:6855: gcc -E  conftest.c
configure:6855: $? = 0
configure:6869: gcc -E  conftest.c
conftest.c:9:28: fatal error: ac_nonexistent.h: No such file or directory
 #include <ac_nonexistent.h>
                            ^
compilation terminated.
configure:6869: $? = 1
configure: failed program was:
| /* confdefs.h */
| #define PACKAGE_NAME "libtorrent"
| #define PACKAGE_TARNAME "libtorrent"
| #define PACKAGE_VERSION "0.13.4"
| #define PACKAGE_STRING "libtorrent 0.13.4"
| #define PACKAGE_BUGREPORT "sundell.software@gmail.com"
| #define PACKAGE_URL ""
| /* end confdefs.h.  */
| #include <ac_nonexistent.h>
configure:6894: result: gcc -E
configure:6914: gcc -E  conftest.c
configure:6914: $? = 0
configure:6928: gcc -E  conftest.c
conftest.c:9:28: fatal error: ac_nonexistent.h: No such file or directory
 #include <ac_nonexistent.h>
                            ^
compilation terminated.
configure:6928: $? = 1
configure: failed program was:
| /* confdefs.h */
| #define PACKAGE_NAME "libtorrent"
| #define PACKAGE_TARNAME "libtorrent"
| #define PACKAGE_VERSION "0.13.4"
| #define PACKAGE_STRING "libtorrent 0.13.4"
| #define PACKAGE_BUGREPORT "sundell.software@gmail.com"
| #define PACKAGE_URL ""
| /* end confdefs.h.  */
| #include <ac_nonexistent.h>
configure:6957: checking for ANSI C header files
configure:6977: gcc -c -g -O2  conftest.c >&5
configure:6977: $? = 0
configure:7050: gcc -o conftest -g -O2   conftest.c  >&5
configure:7050: $? = 0
configure:7050: ./conftest
configure:7050: $? = 0
configure:7061: result: yes
configure:7074: checking for sys/types.h
configure:7074: gcc -c -g -O2  conftest.c >&5
configure:7074: $? = 0
configure:7074: result: yes
configure:7074: checking for sys/stat.h
configure:7074: gcc -c -g -O2  conftest.c >&5
configure:7074: $? = 0
configure:7074: result: yes
configure:7074: checking for stdlib.h
configure:7074: gcc -c -g -O2  conftest.c >&5
configure:7074: $? = 0
configure:7074: result: yes
configure:7074: checking for string.h
configure:7074: gcc -c -g -O2  conftest.c >&5
configure:7074: $? = 0
configure:7074: result: yes
configure:7074: checking for memory.h
configure:7074: gcc -c -g -O2  conftest.c >&5
configure:7074: $? = 0
configure:7074: result: yes
configure:7074: checking for strings.h
configure:7074: gcc -c -g -O2  conftest.c >&5
configure:7074: $? = 0
configure:7074: result: yes
configure:7074: checking for inttypes.h
configure:7074: gcc -c -g -O2  conftest.c >&5
configure:7074: $? = 0
configure:7074: result: yes
configure:7074: checking for stdint.h
configure:7074: gcc -c -g -O2  conftest.c >&5
configure:7074: $? = 0
configure:7074: result: yes
configure:7074: checking for unistd.h
configure:7074: gcc -c -g -O2  conftest.c >&5
configure:7074: $? = 0
configure:7074: result: yes
configure:7088: checking for dlfcn.h
configure:7088: gcc -c -g -O2  conftest.c >&5
configure:7088: $? = 0
configure:7088: result: yes
configure:7293: checking for objdir
configure:7308: result: .libs
configure:7579: checking if gcc supports -fno-rtti -fno-exceptions
configure:7597: gcc -c -g -O2  -fno-rtti -fno-exceptions conftest.c >&5
cc1: warning: command line option '-fno-rtti' is valid for C++/ObjC++ but not for C [enabled by default]
configure:7601: $? = 0
configure:7614: result: no
configure:7941: checking for gcc option to produce PIC
configure:7948: result: -fPIC -DPIC
configure:7956: checking if gcc PIC flag -fPIC -DPIC works
configure:7974: gcc -c -g -O2  -fPIC -DPIC -DPIC conftest.c >&5
configure:7978: $? = 0
configure:7991: result: yes
configure:8020: checking if gcc static flag -static works
configure:8048: result: yes
configure:8063: checking if gcc supports -c -o file.o
configure:8084: gcc -c -g -O2  -o out/conftest2.o conftest.c >&5
configure:8088: $? = 0
configure:8110: result: yes
configure:8118: checking if gcc supports -c -o file.o
configure:8165: result: yes
configure:8198: checking whether the gcc linker (/usr/bin/ld -m elf_x86_64) supports shared libraries
configure:9351: result: yes
configure:9388: checking whether -lc should be explicitly linked in
configure:9396: gcc -c -g -O2  conftest.c >&5
configure:9399: $? = 0
configure:9414: gcc -shared  -fPIC -DPIC conftest.o  -v -Wl,-soname -Wl,conftest -o conftest 2\>\&1 \| /bin/grep  -lc  \>/dev/null 2\>\&1
configure:9417: $? = 0
configure:9431: result: no
configure:9591: checking dynamic linker characteristics
configure:10102: gcc -o conftest -g -O2   -Wl,-rpath -Wl,/foo conftest.c  >&5
configure:10102: $? = 0
configure:10324: result: GNU/Linux ld.so
configure:10431: checking how to hardcode library paths into programs
configure:10456: result: immediate
configure:10996: checking whether stripping libraries is possible
configure:11001: result: yes
configure:11036: checking if libtool supports shared libraries
configure:11038: result: yes
configure:11041: checking whether to build shared libraries
configure:11062: result: yes
configure:11065: checking whether to build static libraries
configure:11069: result: no
configure:11141: checking for a BSD-compatible install
configure:11209: result: /usr/bin/install -c
configure:11220: checking whether build environment is sane
configure:11275: result: yes
configure:11423: checking for a thread-safe mkdir -p
configure:11462: result: /bin/mkdir -p
configure:11465: checking whether make sets $(MAKE)
configure:11487: result: yes
configure:11517: checking for style of include used by make
configure:11545: result: GNU
configure:11579: checking whether make supports nested variables
configure:11596: result: yes
configure:11681: checking dependency style of gcc
configure:11792: result: gcc3
configure:11885: checking for cppunit-config
configure:11903: found /usr/bin/cppunit-config
configure:11916: result: /usr/bin/cppunit-config
configure:11926: checking for Cppunit - version >= 1.9.6
configure:11972: result: 1.13.1
configure:12051: checking for g++
configure:12067: found /usr/bin/g++
configure:12078: result: g++
configure:12105: checking for C++ compiler version
configure:12114: g++ --version >&5
g++ (Ubuntu 4.8.2-19ubuntu1) 4.8.2
Copyright (C) 2013 Free Software Foundation, Inc.
This is free software; see the source for copying conditions.  There is NO
warranty; not even for MERCHANTABILITY or FITNESS FOR A PARTICULAR PURPOSE.

configure:12125: $? = 0
configure:12114: g++ -v >&5
Using built-in specs.
COLLECT_GCC=g++
COLLECT_LTO_WRAPPER=/usr/lib/gcc/x86_64-linux-gnu/4.8/lto-wrapper
Target: x86_64-linux-gnu
Configured with: ../src/configure -v --with-pkgversion='Ubuntu 4.8.2-19ubuntu1' --with-bugurl=file:///usr/share/doc/gcc-4.8/README.Bugs --enable-languages=c,c++,java,go,d,fortran,objc,obj-c++ --prefix=/usr --program-suffix=-4.8 --enable-shared --enable-linker-build-id --libexecdir=/usr/lib --without-included-gettext --enable-threads=posix --with-gxx-include-dir=/usr/include/c++/4.8 --libdir=/usr/lib --enable-nls --with-sysroot=/ --enable-clocale=gnu --enable-libstdcxx-debug --enable-libstdcxx-time=yes --enable-gnu-unique-object --disable-libmudflap --enable-plugin --with-system-zlib --disable-browser-plugin --enable-java-awt=gtk --enable-gtk-cairo --with-java-home=/usr/lib/jvm/java-1.5.0-gcj-4.8-amd64/jre --enable-java-home --with-jvm-root-dir=/usr/lib/jvm/java-1.5.0-gcj-4.8-amd64 --with-jvm-jar-dir=/usr/lib/jvm-exports/java-1.5.0-gcj-4.8-amd64 --with-arch-directory=amd64 --with-ecj-jar=/usr/share/java/eclipse-ecj.jar --enable-objc-gc --enable-multiarch --disable-werror --with-arch-32=i686 --with-abi=m64 --with-multilib-list=m32,m64,mx32 --with-tune=generic --enable-checking=release --build=x86_64-linux-gnu --host=x86_64-linux-gnu --target=x86_64-linux-gnu
Thread model: posix
gcc version 4.8.2 (Ubuntu 4.8.2-19ubuntu1) 
configure:12125: $? = 0
configure:12114: g++ -V >&5
g++: error: unrecognized command line option '-V'
g++: fatal error: no input files
compilation terminated.
configure:12125: $? = 4
configure:12114: g++ -qversion >&5
g++: error: unrecognized command line option '-qversion'
g++: fatal error: no input files
compilation terminated.
configure:12125: $? = 4
configure:12129: checking whether we are using the GNU C++ compiler
configure:12148: g++ -c   conftest.cpp >&5
configure:12148: $? = 0
configure:12157: result: yes
configure:12166: checking whether g++ accepts -g
configure:12186: g++ -c -g  conftest.cpp >&5
configure:12186: $? = 0
configure:12227: result: yes
configure:12268: checking how to run the C++ preprocessor
configure:12295: g++ -E  conftest.cpp
configure:12295: $? = 0
configure:12309: g++ -E  conftest.cpp
conftest.cpp:25:28: fatal error: ac_nonexistent.h: No such file or directory
 #include <ac_nonexistent.h>
                            ^
compilation terminated.
configure:12309: $? = 1
configure: failed program was:
| /* confdefs.h */
| #define PACKAGE_NAME "libtorrent"
| #define PACKAGE_TARNAME "libtorrent"
| #define PACKAGE_VERSION "0.13.4"
| #define PACKAGE_STRING "libtorrent 0.13.4"
| #define PACKAGE_BUGREPORT "sundell.software@gmail.com"
| #define PACKAGE_URL ""
| #define STDC_HEADERS 1
| #define HAVE_SYS_TYPES_H 1
| #define HAVE_SYS_STAT_H 1
| #define HAVE_STDLIB_H 1
| #define HAVE_STRING_H 1
| #define HAVE_MEMORY_H 1
| #define HAVE_STRINGS_H 1
| #define HAVE_INTTYPES_H 1
| #define HAVE_STDINT_H 1
| #define HAVE_UNISTD_H 1
| #define HAVE_DLFCN_H 1
| #define LT_OBJDIR ".libs/"
| #define PEER_NAME "-lt0D40-"
| #define PEER_VERSION "lt\x0D\x40"
| #define PACKAGE "libtorrent"
| #define VERSION "0.13.4"
| /* end confdefs.h.  */
| #include <ac_nonexistent.h>
configure:12334: result: g++ -E
configure:12354: g++ -E  conftest.cpp
configure:12354: $? = 0
configure:12368: g++ -E  conftest.cpp
conftest.cpp:25:28: fatal error: ac_nonexistent.h: No such file or directory
 #include <ac_nonexistent.h>
                            ^
compilation terminated.
configure:12368: $? = 1
configure: failed program was:
| /* confdefs.h */
| #define PACKAGE_NAME "libtorrent"
| #define PACKAGE_TARNAME "libtorrent"
| #define PACKAGE_VERSION "0.13.4"
| #define PACKAGE_STRING "libtorrent 0.13.4"
| #define PACKAGE_BUGREPORT "sundell.software@gmail.com"
| #define PACKAGE_URL ""
| #define STDC_HEADERS 1
| #define HAVE_SYS_TYPES_H 1
| #define HAVE_SYS_STAT_H 1
| #define HAVE_STDLIB_H 1
| #define HAVE_STRING_H 1
| #define HAVE_MEMORY_H 1
| #define HAVE_STRINGS_H 1
| #define HAVE_INTTYPES_H 1
| #define HAVE_STDINT_H 1
| #define HAVE_UNISTD_H 1
| #define HAVE_DLFCN_H 1
| #define LT_OBJDIR ".libs/"
| #define PEER_NAME "-lt0D40-"
| #define PEER_VERSION "lt\x0D\x40"
| #define PACKAGE "libtorrent"
| #define VERSION "0.13.4"
| /* end confdefs.h.  */
| #include <ac_nonexistent.h>
configure:12537: checking for ld used by g++
configure:12604: result: /usr/bin/ld -m elf_x86_64
configure:12611: checking if the linker (/usr/bin/ld -m elf_x86_64) is GNU ld
configure:12626: result: yes
configure:12681: checking whether the g++ linker (/usr/bin/ld -m elf_x86_64) supports shared libraries
configure:13686: result: yes
configure:13722: g++ -c -g -O2  conftest.cpp >&5
configure:13725: $? = 0
configure:14245: checking for g++ option to produce PIC
configure:14252: result: -fPIC -DPIC
configure:14260: checking if g++ PIC flag -fPIC -DPIC works
configure:14278: g++ -c -g -O2  -fPIC -DPIC -DPIC conftest.cpp >&5
configure:14282: $? = 0
configure:14295: result: yes
configure:14318: checking if g++ static flag -static works
configure:14346: result: yes
configure:14358: checking if g++ supports -c -o file.o
configure:14379: g++ -c -g -O2  -o out/conftest2.o conftest.cpp >&5
configure:14383: $? = 0
configure:14405: result: yes
configure:14410: checking if g++ supports -c -o file.o
configure:14457: result: yes
configure:14487: checking whether the g++ linker (/usr/bin/ld -m elf_x86_64) supports shared libraries
configure:14523: result: yes
configure:14664: checking dynamic linker characteristics
configure:15331: result: GNU/Linux ld.so
configure:15384: checking how to hardcode library paths into programs
configure:15409: result: immediate
configure:15451: checking dependency style of g++
configure:15562: result: gcc3
configure:15578: checking whether byte ordering is bigendian
configure:15593: gcc -c -g -O2  conftest.c >&5
conftest.c:26:9: error: unknown type name 'not'
         not a universal capable compiler
         ^
conftest.c:26:15: error: expected '=', ',', ';', 'asm' or '__attribute__' before 'universal'
         not a universal capable compiler
               ^
conftest.c:26:15: error: unknown type name 'universal'
configure:15593: $? = 1
configure: failed program was:
| /* confdefs.h */
| #define PACKAGE_NAME "libtorrent"
| #define PACKAGE_TARNAME "libtorrent"
| #define PACKAGE_VERSION "0.13.4"
| #define PACKAGE_STRING "libtorrent 0.13.4"
| #define PACKAGE_BUGREPORT "sundell.software@gmail.com"
| #define PACKAGE_URL ""
| #define STDC_HEADERS 1
| #define HAVE_SYS_TYPES_H 1
| #define HAVE_SYS_STAT_H 1
| #define HAVE_STDLIB_H 1
| #define HAVE_STRING_H 1
| #define HAVE_MEMORY_H 1
| #define HAVE_STRINGS_H 1
| #define HAVE_INTTYPES_H 1
| #define HAVE_STDINT_H 1
| #define HAVE_UNISTD_H 1
| #define HAVE_DLFCN_H 1
| #define LT_OBJDIR ".libs/"
| #define PEER_NAME "-lt0D40-"
| #define PEER_VERSION "lt\x0D\x40"
| #define PACKAGE "libtorrent"
| #define VERSION "0.13.4"
| /* end confdefs.h.  */
| #ifndef __APPLE_CC__
| 	       not a universal capable compiler
| 	     #endif
| 	     typedef int dummy;
| 
configure:15638: gcc -c -g -O2  conftest.c >&5
configure:15638: $? = 0
configure:15656: gcc -c -g -O2  conftest.c >&5
conftest.c: In function 'main':
conftest.c:32:4: error: unknown type name 'not'
    not big endian
    ^
conftest.c:32:12: error: expected '=', ',', ';', 'asm' or '__attribute__' before 'endian'
    not big endian
            ^
configure:15656: $? = 1
configure: failed program was:
| /* confdefs.h */
| #define PACKAGE_NAME "libtorrent"
| #define PACKAGE_TARNAME "libtorrent"
| #define PACKAGE_VERSION "0.13.4"
| #define PACKAGE_STRING "libtorrent 0.13.4"
| #define PACKAGE_BUGREPORT "sundell.software@gmail.com"
| #define PACKAGE_URL ""
| #define STDC_HEADERS 1
| #define HAVE_SYS_TYPES_H 1
| #define HAVE_SYS_STAT_H 1
| #define HAVE_STDLIB_H 1
| #define HAVE_STRING_H 1
| #define HAVE_MEMORY_H 1
| #define HAVE_STRINGS_H 1
| #define HAVE_INTTYPES_H 1
| #define HAVE_STDINT_H 1
| #define HAVE_UNISTD_H 1
| #define HAVE_DLFCN_H 1
| #define LT_OBJDIR ".libs/"
| #define PEER_NAME "-lt0D40-"
| #define PEER_VERSION "lt\x0D\x40"
| #define PACKAGE "libtorrent"
| #define VERSION "0.13.4"
| /* end confdefs.h.  */
| #include <sys/types.h>
| 		#include <sys/param.h>
| 
| int
| main ()
| {
| #if BYTE_ORDER != BIG_ENDIAN
| 		 not big endian
| 		#endif
| 
|   ;
|   return 0;
| }
configure:15784: result: no
configure:15808: checking for user-defined CXXFLAGS
configure:15812: result: user-defined "-g -O2"
configure:15833: checking the byte alignment
configure:15855: gcc -o conftest -g -O2   conftest.c  >&5
configure:15855: $? = 0
configure:15855: ./conftest
configure:15855: $? = 0
configure:15857: result: none needed
configure:15996: checking for TR1 support
configure:16007: g++ -c -g -O2 -g -DDEBUG  conftest.cpp >&5
configure:16007: $? = 0
configure:16009: result: yes
configure:16101: checking for C++11 support
configure:16115: g++ -c -g -O2 -g -DDEBUG  conftest.cpp >&5
In file included from /usr/include/c++/4.8/unordered_map:35:0,
                 from conftest.cpp:29:
/usr/include/c++/4.8/bits/c++0x_warning.h:32:2: error: #error This file requires compiler and library support for the ISO C++ 2011 standard. This support is currently experimental, and must be enabled with the -std=c++11 or -std=gnu++11 compiler options.
 #error This file requires compiler and library support for the \
  ^
conftest.cpp:31:15: error: 'unordered_map' in namespace 'std' does not name a type
       typedef std::unordered_map<Foo*, int> Bar;
               ^
conftest.cpp:33:20: error: 'Bar' does not name a type
       union test { Bar b1; };
                    ^
configure:16115: $? = 1
configure: failed program was:
| /* confdefs.h */
| #define PACKAGE_NAME "libtorrent"
| #define PACKAGE_TARNAME "libtorrent"
| #define PACKAGE_VERSION "0.13.4"
| #define PACKAGE_STRING "libtorrent 0.13.4"
| #define PACKAGE_BUGREPORT "sundell.software@gmail.com"
| #define PACKAGE_URL ""
| #define STDC_HEADERS 1
| #define HAVE_SYS_TYPES_H 1
| #define HAVE_SYS_STAT_H 1
| #define HAVE_STDLIB_H 1
| #define HAVE_STRING_H 1
| #define HAVE_MEMORY_H 1
| #define HAVE_STRINGS_H 1
| #define HAVE_INTTYPES_H 1
| #define HAVE_STDINT_H 1
| #define HAVE_UNISTD_H 1
| #define HAVE_DLFCN_H 1
| #define LT_OBJDIR ".libs/"
| #define PEER_NAME "-lt0D40-"
| #define PEER_VERSION "lt\x0D\x40"
| #define PACKAGE "libtorrent"
| #define VERSION "0.13.4"
| #define IS_LITTLE_ENDIAN 1
| #define HAVE_TR1 1
| /* end confdefs.h.  */
| 
|       #include <functional>
|       #include <unordered_map>
|       class Foo;
|       typedef std::unordered_map<Foo*, int> Bar;
| 
|       union test { Bar b1; };
| 
configure:16125: result: no
configure:16152: checking for special C compiler options needed for large files
configure:16197: result: no
configure:16203: checking for _FILE_OFFSET_BITS value needed for large files
configure:16228: gcc -c -g -O2  conftest.c >&5
configure:16228: $? = 0
configure:16260: result: no
configure:16379: checking for sysroot
configure:16383: result: no
configure:16504: checking for kqueue support
configure:16518: gcc -o conftest -g -O2   conftest.c  >&5
conftest.c:29:29: fatal error: sys/event.h: No such file or directory
       #include <sys/event.h>
                             ^
compilation terminated.
configure:16518: $? = 1
configure: failed program was:
| /* confdefs.h */
| #define PACKAGE_NAME "libtorrent"
| #define PACKAGE_TARNAME "libtorrent"
| #define PACKAGE_VERSION "0.13.4"
| #define PACKAGE_STRING "libtorrent 0.13.4"
| #define PACKAGE_BUGREPORT "sundell.software@gmail.com"
| #define PACKAGE_URL ""
| #define STDC_HEADERS 1
| #define HAVE_SYS_TYPES_H 1
| #define HAVE_SYS_STAT_H 1
| #define HAVE_STDLIB_H 1
| #define HAVE_STRING_H 1
| #define HAVE_MEMORY_H 1
| #define HAVE_STRINGS_H 1
| #define HAVE_INTTYPES_H 1
| #define HAVE_STDINT_H 1
| #define HAVE_UNISTD_H 1
| #define HAVE_DLFCN_H 1
| #define LT_OBJDIR ".libs/"
| #define PEER_NAME "-lt0D40-"
| #define PEER_VERSION "lt\x0D\x40"
| #define PACKAGE "libtorrent"
| #define VERSION "0.13.4"
| #define IS_LITTLE_ENDIAN 1
| #define HAVE_TR1 1
| /* end confdefs.h.  */
| 
|       #include <sys/time.h>  /* Because OpenBSD's sys/event.h fails to compile otherwise. Yeah... */
|       #include <sys/event.h>
|       int main() {
|         int fd = kqueue();
|         return 0;
|       }
| 
configure:16528: result: no
configure:16536: checking whether kqueue supports pipes and ptys
configure:16575: gcc -o conftest -g -O2   conftest.c  >&5
conftest.c:31:29: fatal error: sys/event.h: No such file or directory
       #include <sys/event.h>
                             ^
compilation terminated.
configure:16575: $? = 1
configure: program exited with status 1
configure: failed program was:
| /* confdefs.h */
| #define PACKAGE_NAME "libtorrent"
| #define PACKAGE_TARNAME "libtorrent"
| #define PACKAGE_VERSION "0.13.4"
| #define PACKAGE_STRING "libtorrent 0.13.4"
| #define PACKAGE_BUGREPORT "sundell.software@gmail.com"
| #define PACKAGE_URL ""
| #define STDC_HEADERS 1
| #define HAVE_SYS_TYPES_H 1
| #define HAVE_SYS_STAT_H 1
| #define HAVE_STDLIB_H 1
| #define HAVE_STRING_H 1
| #define HAVE_MEMORY_H 1
| #define HAVE_STRINGS_H 1
| #define HAVE_INTTYPES_H 1
| #define HAVE_STDINT_H 1
| #define HAVE_UNISTD_H 1
| #define HAVE_DLFCN_H 1
| #define LT_OBJDIR ".libs/"
| #define PEER_NAME "-lt0D40-"
| #define PEER_VERSION "lt\x0D\x40"
| #define PACKAGE "libtorrent"
| #define VERSION "0.13.4"
| #define IS_LITTLE_ENDIAN 1
| #define HAVE_TR1 1
| /* end confdefs.h.  */
| 
|       #include <fcntl.h>
|       #include <stdlib.h>
|       #include <unistd.h>
|       #include <sys/event.h>
|       #include <sys/time.h>
|       int main() {
|         struct kevent ev[2], ev_out[2];
|         struct timespec ts = { 0, 0 };
|         int pfd[2], pty[2], kfd, n;
|         char buffer[9001];
|         if (pipe(pfd) == -1) return 1;
|         if (fcntl(pfd[1], F_SETFL, O_NONBLOCK) == -1) return 2;
|         while ((n = write(pfd[1], buffer, sizeof(buffer))) == sizeof(buffer));
|         if ((pty[0]=posix_openpt(O_RDWR | O_NOCTTY)) == -1) return 3;
|         if ((pty[1]=grantpt(pty[0])) == -1) return 4;
|         EV_SET(ev+0, pfd[1], EVFILT_WRITE, EV_ADD | EV_ENABLE, 0, 0, NULL);
|         EV_SET(ev+1, pty[1], EVFILT_READ, EV_ADD | EV_ENABLE, 0, 0, NULL);
|         if ((kfd = kqueue()) == -1) return 5;
|         if ((n = kevent(kfd, ev, 2, NULL, 0, NULL)) == -1) return 6;
|         if (ev_out[0].flags & EV_ERROR) return 7;
|         if (ev_out[1].flags & EV_ERROR) return 8;
|         read(pfd[0], buffer, sizeof(buffer));
|         if ((n = kevent(kfd, NULL, 0, ev_out, 2, &ts)) < 1) return 9;
|         return 0;
|       }
| 
configure:16585: result: no
configure:16639: checking for epoll support
configure:16652: gcc -c -g -O2  conftest.c >&5
configure:16652: $? = 0
configure:16657: result: yes
configure:16673: checking for fallocate
configure:16690: gcc -o conftest -g -O2   conftest.c  >&5
configure:16690: $? = 0
configure:16695: result: yes
configure:16772: checking size of long
configure:16777: gcc -o conftest -g -O2   conftest.c  >&5
configure:16777: $? = 0
configure:16777: ./conftest
configure:16777: $? = 0
configure:16791: result: 8
configure:16909: checking sys/vfs.h usability
configure:16909: gcc -c -g -O2  conftest.c >&5
configure:16909: $? = 0
configure:16909: result: yes
configure:16909: checking sys/vfs.h presence
configure:16909: gcc -E  conftest.c
configure:16909: $? = 0
configure:16909: result: yes
configure:16909: checking for sys/vfs.h
configure:16909: result: yes
configure:16909: checking sys/statvfs.h usability
configure:16909: gcc -c -g -O2  conftest.c >&5
configure:16909: $? = 0
configure:16909: result: yes
configure:16909: checking sys/statvfs.h presence
configure:16909: gcc -E  conftest.c
configure:16909: $? = 0
configure:16909: result: yes
configure:16909: checking for sys/statvfs.h
configure:16909: result: yes
configure:16909: checking sys/statfs.h usability
configure:16909: gcc -c -g -O2  conftest.c >&5
configure:16909: $? = 0
configure:16909: result: yes
configure:16909: checking sys/statfs.h presence
configure:16909: gcc -E  conftest.c
configure:16909: $? = 0
configure:16909: result: yes
configure:16909: checking for sys/statfs.h
configure:16909: result: yes
configure:16920: checking for statvfs
configure:16948: gcc -o conftest -g -O2   conftest.c  >&5
configure:16948: $? = 0
configure:16968: result: ok
configure:17217: checking if compiler supports __attribute__((visibility("default")))
configure:17228: g++ -c -g -O2 -g -DDEBUG -fvisibility=hidden  conftest.cpp >&5
configure:17228: $? = 0
configure:17236: result: yes
configure:17373: checking whether pthreads work without any flags
configure:17466: gcc -o conftest -g -O2    conftest.c   >&5
/tmp/cczTVEoT.o: In function `main':
/home/snowwolf725/rtorrent_with_ipv6/libtorrent-0.13.4/conftest.c:49: undefined reference to `pthread_create'
/home/snowwolf725/rtorrent_with_ipv6/libtorrent-0.13.4/conftest.c:50: undefined reference to `pthread_join'
/home/snowwolf725/rtorrent_with_ipv6/libtorrent-0.13.4/conftest.c:52: undefined reference to `__pthread_register_cancel'
/home/snowwolf725/rtorrent_with_ipv6/libtorrent-0.13.4/conftest.c:53: undefined reference to `__pthread_unregister_cancel'
collect2: error: ld returned 1 exit status
configure:17466: $? = 1
configure: failed program was:
| /* confdefs.h */
| #define PACKAGE_NAME "libtorrent"
| #define PACKAGE_TARNAME "libtorrent"
| #define PACKAGE_VERSION "0.13.4"
| #define PACKAGE_STRING "libtorrent 0.13.4"
| #define PACKAGE_BUGREPORT "sundell.software@gmail.com"
| #define PACKAGE_URL ""
| #define STDC_HEADERS 1
| #define HAVE_SYS_TYPES_H 1
| #define HAVE_SYS_STAT_H 1
| #define HAVE_STDLIB_H 1
| #define HAVE_STRING_H 1
| #define HAVE_MEMORY_H 1
| #define HAVE_STRINGS_H 1
| #define HAVE_INTTYPES_H 1
| #define HAVE_STDINT_H 1
| #define HAVE_UNISTD_H 1
| #define HAVE_DLFCN_H 1
| #define LT_OBJDIR ".libs/"
| #define PEER_NAME "-lt0D40-"
| #define PEER_VERSION "lt\x0D\x40"
| #define PACKAGE "libtorrent"
| #define VERSION "0.13.4"
| #define IS_LITTLE_ENDIAN 1
| #define HAVE_TR1 1
| #define KQUEUE_SOCKET_ONLY 1
| #define USE_EPOLL 1
| #define HAVE_FALLOCATE 1
| #define SIZEOF_LONG 8
| #define DEFAULT_ADDRESS_SPACE_SIZE 4096
| #define HAVE_SYS_VFS_H 1
| #define HAVE_SYS_STATVFS_H 1
| #define HAVE_SYS_STATFS_H 1
| #define FS_STAT_FD fstatvfs(fd, &m_stat) == 0
| #define FS_STAT_FN statvfs(fn, &m_stat) == 0
| #define FS_STAT_STRUCT struct statvfs
| #define FS_STAT_SIZE_TYPE unsigned long
| #define FS_STAT_COUNT_TYPE fsblkcnt_t
| #define FS_STAT_BLOCK_SIZE (m_stat.f_frsize)
| #define SUPPORT_ATTRIBUTE_VISIBILITY 1
| /* end confdefs.h.  */
| #include <pthread.h>
|                         static void routine(void *a) { a = 0; }
|                         static void *start_routine(void *a) { return a; }
| int
| main ()
| {
| pthread_t th; pthread_attr_t attr;
|                         pthread_create(&th, 0, start_routine, 0);
|                         pthread_join(th, 0);
|                         pthread_attr_init(&attr);
|                         pthread_cleanup_push(routine, 0);
|                         pthread_cleanup_pop(0) /* ; */
|   ;
|   return 0;
| }
configure:17475: result: no
configure:17428: checking for the pthreads library -lpthreads
configure:17466: gcc -o conftest -g -O2    conftest.c -lpthreads  >&5
/usr/bin/ld: cannot find -lpthreads
collect2: error: ld returned 1 exit status
configure:17466: $? = 1
configure: failed program was:
| /* confdefs.h */
| #define PACKAGE_NAME "libtorrent"
| #define PACKAGE_TARNAME "libtorrent"
| #define PACKAGE_VERSION "0.13.4"
| #define PACKAGE_STRING "libtorrent 0.13.4"
| #define PACKAGE_BUGREPORT "sundell.software@gmail.com"
| #define PACKAGE_URL ""
| #define STDC_HEADERS 1
| #define HAVE_SYS_TYPES_H 1
| #define HAVE_SYS_STAT_H 1
| #define HAVE_STDLIB_H 1
| #define HAVE_STRING_H 1
| #define HAVE_MEMORY_H 1
| #define HAVE_STRINGS_H 1
| #define HAVE_INTTYPES_H 1
| #define HAVE_STDINT_H 1
| #define HAVE_UNISTD_H 1
| #define HAVE_DLFCN_H 1
| #define LT_OBJDIR ".libs/"
| #define PEER_NAME "-lt0D40-"
| #define PEER_VERSION "lt\x0D\x40"
| #define PACKAGE "libtorrent"
| #define VERSION "0.13.4"
| #define IS_LITTLE_ENDIAN 1
| #define HAVE_TR1 1
| #define KQUEUE_SOCKET_ONLY 1
| #define USE_EPOLL 1
| #define HAVE_FALLOCATE 1
| #define SIZEOF_LONG 8
| #define DEFAULT_ADDRESS_SPACE_SIZE 4096
| #define HAVE_SYS_VFS_H 1
| #define HAVE_SYS_STATVFS_H 1
| #define HAVE_SYS_STATFS_H 1
| #define FS_STAT_FD fstatvfs(fd, &m_stat) == 0
| #define FS_STAT_FN statvfs(fn, &m_stat) == 0
| #define FS_STAT_STRUCT struct statvfs
| #define FS_STAT_SIZE_TYPE unsigned long
| #define FS_STAT_COUNT_TYPE fsblkcnt_t
| #define FS_STAT_BLOCK_SIZE (m_stat.f_frsize)
| #define SUPPORT_ATTRIBUTE_VISIBILITY 1
| /* end confdefs.h.  */
| #include <pthread.h>
|                         static void routine(void *a) { a = 0; }
|                         static void *start_routine(void *a) { return a; }
| int
| main ()
| {
| pthread_t th; pthread_attr_t attr;
|                         pthread_create(&th, 0, start_routine, 0);
|                         pthread_join(th, 0);
|                         pthread_attr_init(&attr);
|                         pthread_cleanup_push(routine, 0);
|                         pthread_cleanup_pop(0) /* ; */
|   ;
|   return 0;
| }
configure:17475: result: no
configure:17378: checking whether pthreads work with -Kthread
configure:17466: gcc -o conftest -g -O2 -Kthread   conftest.c   >&5
gcc: error: unrecognized command line option '-Kthread'
configure:17466: $? = 1
configure: failed program was:
| /* confdefs.h */
| #define PACKAGE_NAME "libtorrent"
| #define PACKAGE_TARNAME "libtorrent"
| #define PACKAGE_VERSION "0.13.4"
| #define PACKAGE_STRING "libtorrent 0.13.4"
| #define PACKAGE_BUGREPORT "sundell.software@gmail.com"
| #define PACKAGE_URL ""
| #define STDC_HEADERS 1
| #define HAVE_SYS_TYPES_H 1
| #define HAVE_SYS_STAT_H 1
| #define HAVE_STDLIB_H 1
| #define HAVE_STRING_H 1
| #define HAVE_MEMORY_H 1
| #define HAVE_STRINGS_H 1
| #define HAVE_INTTYPES_H 1
| #define HAVE_STDINT_H 1
| #define HAVE_UNISTD_H 1
| #define HAVE_DLFCN_H 1
| #define LT_OBJDIR ".libs/"
| #define PEER_NAME "-lt0D40-"
| #define PEER_VERSION "lt\x0D\x40"
| #define PACKAGE "libtorrent"
| #define VERSION "0.13.4"
| #define IS_LITTLE_ENDIAN 1
| #define HAVE_TR1 1
| #define KQUEUE_SOCKET_ONLY 1
| #define USE_EPOLL 1
| #define HAVE_FALLOCATE 1
| #define SIZEOF_LONG 8
| #define DEFAULT_ADDRESS_SPACE_SIZE 4096
| #define HAVE_SYS_VFS_H 1
| #define HAVE_SYS_STATVFS_H 1
| #define HAVE_SYS_STATFS_H 1
| #define FS_STAT_FD fstatvfs(fd, &m_stat) == 0
| #define FS_STAT_FN statvfs(fn, &m_stat) == 0
| #define FS_STAT_STRUCT struct statvfs
| #define FS_STAT_SIZE_TYPE unsigned long
| #define FS_STAT_COUNT_TYPE fsblkcnt_t
| #define FS_STAT_BLOCK_SIZE (m_stat.f_frsize)
| #define SUPPORT_ATTRIBUTE_VISIBILITY 1
| /* end confdefs.h.  */
| #include <pthread.h>
|                         static void routine(void *a) { a = 0; }
|                         static void *start_routine(void *a) { return a; }
| int
| main ()
| {
| pthread_t th; pthread_attr_t attr;
|                         pthread_create(&th, 0, start_routine, 0);
|                         pthread_join(th, 0);
|                         pthread_attr_init(&attr);
|                         pthread_cleanup_push(routine, 0);
|                         pthread_cleanup_pop(0) /* ; */
|   ;
|   return 0;
| }
configure:17475: result: no
configure:17378: checking whether pthreads work with -kthread
configure:17466: gcc -o conftest -g -O2 -kthread   conftest.c   >&5
gcc: error: unrecognized command line option '-kthread'
configure:17466: $? = 1
configure: failed program was:
| /* confdefs.h */
| #define PACKAGE_NAME "libtorrent"
| #define PACKAGE_TARNAME "libtorrent"
| #define PACKAGE_VERSION "0.13.4"
| #define PACKAGE_STRING "libtorrent 0.13.4"
| #define PACKAGE_BUGREPORT "sundell.software@gmail.com"
| #define PACKAGE_URL ""
| #define STDC_HEADERS 1
| #define HAVE_SYS_TYPES_H 1
| #define HAVE_SYS_STAT_H 1
| #define HAVE_STDLIB_H 1
| #define HAVE_STRING_H 1
| #define HAVE_MEMORY_H 1
| #define HAVE_STRINGS_H 1
| #define HAVE_INTTYPES_H 1
| #define HAVE_STDINT_H 1
| #define HAVE_UNISTD_H 1
| #define HAVE_DLFCN_H 1
| #define LT_OBJDIR ".libs/"
| #define PEER_NAME "-lt0D40-"
| #define PEER_VERSION "lt\x0D\x40"
| #define PACKAGE "libtorrent"
| #define VERSION "0.13.4"
| #define IS_LITTLE_ENDIAN 1
| #define HAVE_TR1 1
| #define KQUEUE_SOCKET_ONLY 1
| #define USE_EPOLL 1
| #define HAVE_FALLOCATE 1
| #define SIZEOF_LONG 8
| #define DEFAULT_ADDRESS_SPACE_SIZE 4096
| #define HAVE_SYS_VFS_H 1
| #define HAVE_SYS_STATVFS_H 1
| #define HAVE_SYS_STATFS_H 1
| #define FS_STAT_FD fstatvfs(fd, &m_stat) == 0
| #define FS_STAT_FN statvfs(fn, &m_stat) == 0
| #define FS_STAT_STRUCT struct statvfs
| #define FS_STAT_SIZE_TYPE unsigned long
| #define FS_STAT_COUNT_TYPE fsblkcnt_t
| #define FS_STAT_BLOCK_SIZE (m_stat.f_frsize)
| #define SUPPORT_ATTRIBUTE_VISIBILITY 1
| /* end confdefs.h.  */
| #include <pthread.h>
|                         static void routine(void *a) { a = 0; }
|                         static void *start_routine(void *a) { return a; }
| int
| main ()
| {
| pthread_t th; pthread_attr_t attr;
|                         pthread_create(&th, 0, start_routine, 0);
|                         pthread_join(th, 0);
|                         pthread_attr_init(&attr);
|                         pthread_cleanup_push(routine, 0);
|                         pthread_cleanup_pop(0) /* ; */
|   ;
|   return 0;
| }
configure:17475: result: no
configure:17428: checking for the pthreads library -llthread
configure:17466: gcc -o conftest -g -O2    conftest.c -llthread  >&5
/usr/bin/ld: cannot find -llthread
collect2: error: ld returned 1 exit status
configure:17466: $? = 1
configure: failed program was:
| /* confdefs.h */
| #define PACKAGE_NAME "libtorrent"
| #define PACKAGE_TARNAME "libtorrent"
| #define PACKAGE_VERSION "0.13.4"
| #define PACKAGE_STRING "libtorrent 0.13.4"
| #define PACKAGE_BUGREPORT "sundell.software@gmail.com"
| #define PACKAGE_URL ""
| #define STDC_HEADERS 1
| #define HAVE_SYS_TYPES_H 1
| #define HAVE_SYS_STAT_H 1
| #define HAVE_STDLIB_H 1
| #define HAVE_STRING_H 1
| #define HAVE_MEMORY_H 1
| #define HAVE_STRINGS_H 1
| #define HAVE_INTTYPES_H 1
| #define HAVE_STDINT_H 1
| #define HAVE_UNISTD_H 1
| #define HAVE_DLFCN_H 1
| #define LT_OBJDIR ".libs/"
| #define PEER_NAME "-lt0D40-"
| #define PEER_VERSION "lt\x0D\x40"
| #define PACKAGE "libtorrent"
| #define VERSION "0.13.4"
| #define IS_LITTLE_ENDIAN 1
| #define HAVE_TR1 1
| #define KQUEUE_SOCKET_ONLY 1
| #define USE_EPOLL 1
| #define HAVE_FALLOCATE 1
| #define SIZEOF_LONG 8
| #define DEFAULT_ADDRESS_SPACE_SIZE 4096
| #define HAVE_SYS_VFS_H 1
| #define HAVE_SYS_STATVFS_H 1
| #define HAVE_SYS_STATFS_H 1
| #define FS_STAT_FD fstatvfs(fd, &m_stat) == 0
| #define FS_STAT_FN statvfs(fn, &m_stat) == 0
| #define FS_STAT_STRUCT struct statvfs
| #define FS_STAT_SIZE_TYPE unsigned long
| #define FS_STAT_COUNT_TYPE fsblkcnt_t
| #define FS_STAT_BLOCK_SIZE (m_stat.f_frsize)
| #define SUPPORT_ATTRIBUTE_VISIBILITY 1
| /* end confdefs.h.  */
| #include <pthread.h>
|                         static void routine(void *a) { a = 0; }
|                         static void *start_routine(void *a) { return a; }
| int
| main ()
| {
| pthread_t th; pthread_attr_t attr;
|                         pthread_create(&th, 0, start_routine, 0);
|                         pthread_join(th, 0);
|                         pthread_attr_init(&attr);
|                         pthread_cleanup_push(routine, 0);
|                         pthread_cleanup_pop(0) /* ; */
|   ;
|   return 0;
| }
configure:17475: result: no
configure:17378: checking whether pthreads work with -pthread
configure:17466: gcc -o conftest -g -O2 -pthread   conftest.c   >&5
configure:17466: $? = 0
configure:17475: result: yes
configure:17494: checking for joinable pthread attribute
configure:17509: gcc -o conftest -g -O2 -pthread   conftest.c   >&5
configure:17509: $? = 0
configure:17515: result: PTHREAD_CREATE_JOINABLE
configure:17525: checking if more special flags are required for pthreads
configure:17539: result: no
configure:17545: checking for PTHREAD_PRIO_INHERIT
configure:17563: gcc -o conftest -g -O2 -pthread   conftest.c   >&5
configure:17563: $? = 0
configure:17572: result: yes
configure:17715: checking for pkg-config
configure:17733: found /usr/bin/pkg-config
configure:17745: result: /usr/bin/pkg-config
configure:17770: checking pkg-config is at least version 0.9.0
configure:17773: result: yes
configure:17894: checking for OPENSSL
configure:17901: $PKG_CONFIG --exists --print-errors "libcrypto"
configure:17904: $? = 0
configure:17918: $PKG_CONFIG --exists --print-errors "libcrypto"
configure:17921: $? = 0
configure:17979: result: yes
configure:18011: checking for posix_memalign
configure:18011: gcc -o conftest -g -O2 -pthread   conftest.c   -lcrypto   >&5
configure:18011: $? = 0
configure:18011: result: yes
configure:18022: checking for madvise
configure:18033: gcc -c -g -O2 -pthread  conftest.c >&5
configure:18033: $? = 0
configure:18035: result: yes
configure:18050: checking for cacheline
configure:18062: gcc -c -g -O2 -pthread  conftest.c >&5
conftest.c:50:35: fatal error: linux/cache.h: No such file or directory
           #include <linux/cache.h>
                                   ^
compilation terminated.
configure:18062: $? = 1
configure: failed program was:
| /* confdefs.h */
| #define PACKAGE_NAME "libtorrent"
| #define PACKAGE_TARNAME "libtorrent"
| #define PACKAGE_VERSION "0.13.4"
| #define PACKAGE_STRING "libtorrent 0.13.4"
| #define PACKAGE_BUGREPORT "sundell.software@gmail.com"
| #define PACKAGE_URL ""
| #define STDC_HEADERS 1
| #define HAVE_SYS_TYPES_H 1
| #define HAVE_SYS_STAT_H 1
| #define HAVE_STDLIB_H 1
| #define HAVE_STRING_H 1
| #define HAVE_MEMORY_H 1
| #define HAVE_STRINGS_H 1
| #define HAVE_INTTYPES_H 1
| #define HAVE_STDINT_H 1
| #define HAVE_UNISTD_H 1
| #define HAVE_DLFCN_H 1
| #define LT_OBJDIR ".libs/"
| #define PEER_NAME "-lt0D40-"
| #define PEER_VERSION "lt\x0D\x40"
| #define PACKAGE "libtorrent"
| #define VERSION "0.13.4"
| #define IS_LITTLE_ENDIAN 1
| #define HAVE_TR1 1
| #define KQUEUE_SOCKET_ONLY 1
| #define USE_EPOLL 1
| #define HAVE_FALLOCATE 1
| #define SIZEOF_LONG 8
| #define DEFAULT_ADDRESS_SPACE_SIZE 4096
| #define HAVE_SYS_VFS_H 1
| #define HAVE_SYS_STATVFS_H 1
| #define HAVE_SYS_STATFS_H 1
| #define FS_STAT_FD fstatvfs(fd, &m_stat) == 0
| #define FS_STAT_FN statvfs(fn, &m_stat) == 0
| #define FS_STAT_STRUCT struct statvfs
| #define FS_STAT_SIZE_TYPE unsigned long
| #define FS_STAT_COUNT_TYPE fsblkcnt_t
| #define FS_STAT_BLOCK_SIZE (m_stat.f_frsize)
| #define SUPPORT_ATTRIBUTE_VISIBILITY 1
| #define HAVE_PTHREAD_PRIO_INHERIT 1
| #define HAVE_PTHREAD 1
| #define USE_OPENSSL 1
| #define USE_OPENSSL_SHA 1
| #define HAVE_POSIX_MEMALIGN 1
| #define USE_MADVISE 1
| /* end confdefs.h.  */
| 
|       #include <stdlib.h>
|           #include <linux/cache.h>
|           void* vptr __cacheline_aligned;
|           void f() { posix_memalign(&vptr, SMP_CACHE_BYTES, 42); }
| 
configure:18077: result: using default 128 bytes
configure:18090: checking for __builtin_popcount
configure:18099: gcc -c -g -O2 -pthread  conftest.c >&5
configure:18099: $? = 0
configure:18101: result: yes
configure:18116: checking for execinfo.h
configure:18132: gcc -o conftest -g -O2 -pthread   conftest.c   -lcrypto   >&5
conftest.c: In function 'main':
conftest.c:53:7: warning: null argument where non-null required (argument 1) [-Wnonnull]
       int main() { backtrace((void**)0, 0); backtrace_symbols((char**)0, 0); return 0;}
       ^
conftest.c:53:7: warning: passing argument 1 of 'backtrace_symbols' from incompatible pointer type [enabled by default]
In file included from conftest.c:52:0:
/usr/include/execinfo.h:32:15: note: expected 'void * const*' but argument is of type 'char **'
 extern char **backtrace_symbols (void *const *__array, int __size)
               ^
conftest.c:53:7: warning: null argument where non-null required (argument 1) [-Wnonnull]
       int main() { backtrace((void**)0, 0); backtrace_symbols((char**)0, 0); return 0;}
       ^
configure:18132: $? = 0
configure:18132: ./conftest
configure:18132: $? = 0
configure:18134: result: yes
configure:18154: checking pthread.h usability
configure:18154: gcc -c -g -O2 -pthread  conftest.c >&5
configure:18154: $? = 0
configure:18154: result: yes
configure:18154: checking pthread.h presence
configure:18154: gcc -E  conftest.c
configure:18154: $? = 0
configure:18154: result: yes
configure:18154: checking for pthread.h
configure:18154: result: yes
configure:18165: checking for pthread_setname_np type
configure:18185: gcc -o conftest -g -O2 -pthread   conftest.c   -lcrypto   >&5
configure:18185: $? = 0
configure:18190: result: generic
configure:18323: checking signedness of mincore parameter
configure:18335: g++ -c -g -O2 -g -DDEBUG -fvisibility=hidden -pthread    conftest.cpp >&5
configure:18335: $? = 0
configure:18343: result: unsigned
configure:18396: checking for proper overloaded template function disambiguation
configure:18407: g++ -c -g -O2 -g -DDEBUG -fvisibility=hidden -pthread    conftest.cpp >&5
configure:18407: $? = 0
configure:18409: result: yes
configure:18443: checking if instrumentation should be included
configure:18465: result: yes
configure:18483: checking if compiler supports __attribute__((unused))
configure:18494: gcc -c -g -O2 -pthread  conftest.c >&5
configure:18494: $? = 0
configure:18502: result: yes
configure:18632: checking that generated files are newer than configure
configure:18638: result: done
configure:18666: creating ./config.status

## ---------------------- ##
## Running config.status. ##
## ---------------------- ##

This file was extended by libtorrent config.status 0.13.4, which was
generated by GNU Autoconf 2.69.  Invocation command line was

  CONFIG_FILES    = 
  CONFIG_HEADERS  = 
  CONFIG_LINKS    = 
  CONFIG_COMMANDS = 
  $ ./config.status 

on ns4002282.ip-198-100-147.net

config.status:1213: creating libtorrent.pc
config.status:1213: creating Makefile
config.status:1213: creating src/Makefile
config.status:1213: creating src/torrent/Makefile
config.status:1213: creating src/torrent/peer/Makefile
config.status:1213: creating src/torrent/data/Makefile
config.status:1213: creating src/torrent/download/Makefile
config.status:1213: creating src/torrent/utils/Makefile
config.status:1213: creating src/data/Makefile
config.status:1213: creating src/dht/Makefile
config.status:1213: creating src/download/Makefile
config.status:1213: creating src/net/Makefile
config.status:1213: creating src/protocol/Makefile
config.status:1213: creating src/tracker/Makefile
config.status:1213: creating src/utils/Makefile
config.status:1213: creating test/Makefile
config.status:1213: creating config.h
config.status:1442: executing libtool commands
config.status:1442: executing depfiles commands

## ---------------- ##
## Cache variables. ##
## ---------------- ##

ac_cv_build=x86_64-unknown-linux-gnu
ac_cv_c_bigendian=no
ac_cv_c_compiler_gnu=yes
ac_cv_cxx_compiler_gnu=yes
ac_cv_env_CCC_set=
ac_cv_env_CCC_value=
ac_cv_env_CC_set=
ac_cv_env_CC_value=
ac_cv_env_CFLAGS_set=
ac_cv_env_CFLAGS_value=
ac_cv_env_CPPFLAGS_set=
ac_cv_env_CPPFLAGS_value=
ac_cv_env_CPP_set=
ac_cv_env_CPP_value=
ac_cv_env_CXXCPP_set=
ac_cv_env_CXXCPP_value=
ac_cv_env_CXXFLAGS_set=
ac_cv_env_CXXFLAGS_value=
ac_cv_env_CXX_set=
ac_cv_env_CXX_value=
ac_cv_env_LDFLAGS_set=
ac_cv_env_LDFLAGS_value=
ac_cv_env_LIBS_set=
ac_cv_env_LIBS_value=
ac_cv_env_OPENSSL_CFLAGS_set=
ac_cv_env_OPENSSL_CFLAGS_value=
ac_cv_env_OPENSSL_LIBS_set=
ac_cv_env_OPENSSL_LIBS_value=
ac_cv_env_PKG_CONFIG_LIBDIR_set=
ac_cv_env_PKG_CONFIG_LIBDIR_value=
ac_cv_env_PKG_CONFIG_PATH_set=
ac_cv_env_PKG_CONFIG_PATH_value=
ac_cv_env_PKG_CONFIG_set=
ac_cv_env_PKG_CONFIG_value=
ac_cv_env_build_alias_set=
ac_cv_env_build_alias_value=
ac_cv_env_host_alias_set=
ac_cv_env_host_alias_value=
ac_cv_env_target_alias_set=
ac_cv_env_target_alias_value=
ac_cv_func_posix_memalign=yes
ac_cv_header_dlfcn_h=yes
ac_cv_header_inttypes_h=yes
ac_cv_header_memory_h=yes
ac_cv_header_pthread_h=yes
ac_cv_header_stdc=yes
ac_cv_header_stdint_h=yes
ac_cv_header_stdlib_h=yes
ac_cv_header_string_h=yes
ac_cv_header_strings_h=yes
ac_cv_header_sys_stat_h=yes
ac_cv_header_sys_statfs_h=yes
ac_cv_header_sys_statvfs_h=yes
ac_cv_header_sys_types_h=yes
ac_cv_header_sys_vfs_h=yes
ac_cv_header_unistd_h=yes
ac_cv_host=x86_64-unknown-linux-gnu
ac_cv_objext=o
ac_cv_path_CPPUNIT_CONFIG=/usr/bin/cppunit-config
ac_cv_path_EGREP='/bin/grep -E'
ac_cv_path_FGREP='/bin/grep -F'
ac_cv_path_GREP=/bin/grep
ac_cv_path_SED=/bin/sed
ac_cv_path_ac_pt_PKG_CONFIG=/usr/bin/pkg-config
ac_cv_path_install='/usr/bin/install -c'
ac_cv_path_mkdir=/bin/mkdir
ac_cv_prog_AWK=gawk
ac_cv_prog_CPP='gcc -E'
ac_cv_prog_CXXCPP='g++ -E'
ac_cv_prog_ac_ct_AR=ar
ac_cv_prog_ac_ct_CC=gcc
ac_cv_prog_ac_ct_CXX=g++
ac_cv_prog_ac_ct_MANIFEST_TOOL=mt
ac_cv_prog_ac_ct_OBJDUMP=objdump
ac_cv_prog_ac_ct_RANLIB=ranlib
ac_cv_prog_ac_ct_STRIP=strip
ac_cv_prog_cc_c89=
ac_cv_prog_cc_g=yes
ac_cv_prog_cxx_g=yes
ac_cv_prog_make_make_set=yes
ac_cv_sizeof_long=8
ac_cv_sys_file_offset_bits=no
ac_cv_sys_largefile_CC=no
am_cv_CC_dependencies_compiler_type=gcc3
am_cv_CXX_dependencies_compiler_type=gcc3
am_cv_make_support_nested_variables=yes
am_cv_prog_cc_c_o=yes
ax_cv_PTHREAD_PRIO_INHERIT=yes
cc_cv_attribute_unused=yes
cc_cv_attribute_visibility=yes
lt_cv_ar_at_file=@
lt_cv_archive_cmds_need_lc=no
lt_cv_deplibs_check_method=pass_all
lt_cv_file_magic_cmd='$MAGIC_CMD'
lt_cv_file_magic_test_file=
lt_cv_ld_reload_flag=-r
lt_cv_nm_interface='BSD nm'
lt_cv_objdir=.libs
lt_cv_path_LD=/usr/bin/ld
lt_cv_path_LDCXX='/usr/bin/ld -m elf_x86_64'
lt_cv_path_NM='/usr/bin/nm -B'
lt_cv_path_mainfest_tool=no
lt_cv_prog_compiler_c_o=yes
lt_cv_prog_compiler_c_o_CXX=yes
lt_cv_prog_compiler_pic='-fPIC -DPIC'
lt_cv_prog_compiler_pic_CXX='-fPIC -DPIC'
lt_cv_prog_compiler_pic_works=yes
lt_cv_prog_compiler_pic_works_CXX=yes
lt_cv_prog_compiler_rtti_exceptions=no
lt_cv_prog_compiler_static_works=yes
lt_cv_prog_compiler_static_works_CXX=yes
lt_cv_prog_gnu_ld=yes
lt_cv_prog_gnu_ldcxx=yes
lt_cv_sharedlib_from_linklib_cmd='printf %s\n'
lt_cv_shlibpath_overrides_runpath=no
lt_cv_sys_global_symbol_pipe='sed -n -e '\''s/^.*[	 ]\([ABCDGIRSTW][ABCDGIRSTW]*\)[	 ][	 ]*\([_A-Za-z][_A-Za-z0-9]*\)$/\1 \2 \2/p'\'' | sed '\''/ __gnu_lto/d'\'''
lt_cv_sys_global_symbol_to_c_name_address='sed -n -e '\''s/^: \([^ ]*\)[ ]*$/  {\"\1\", (void *) 0},/p'\'' -e '\''s/^[ABCDGIRSTW]* \([^ ]*\) \([^ ]*\)$/  {"\2", (void *) \&\2},/p'\'''
lt_cv_sys_global_symbol_to_c_name_address_lib_prefix='sed -n -e '\''s/^: \([^ ]*\)[ ]*$/  {\"\1\", (void *) 0},/p'\'' -e '\''s/^[ABCDGIRSTW]* \([^ ]*\) \(lib[^ ]*\)$/  {"\2", (void *) \&\2},/p'\'' -e '\''s/^[ABCDGIRSTW]* \([^ ]*\) \([^ ]*\)$/  {"lib\2", (void *) \&\2},/p'\'''
lt_cv_sys_global_symbol_to_cdecl='sed -n -e '\''s/^T .* \(.*\)$/extern int \1();/p'\'' -e '\''s/^[ABCDGIRSTW]* .* \(.*\)$/extern char \1;/p'\'''
lt_cv_sys_max_cmd_len=1572864
lt_cv_to_host_file_cmd=func_convert_file_noop
lt_cv_to_tool_file_cmd=func_convert_file_noop
pkg_cv_OPENSSL_CFLAGS=' '
pkg_cv_OPENSSL_LIBS='-lcrypto  '

## ----------------- ##
## Output variables. ##
## ----------------- ##

ACLOCAL='${SHELL} /home/snowwolf725/rtorrent_with_ipv6/libtorrent-0.13.4/missing aclocal-1.14'
AMDEPBACKSLASH='\'
AMDEP_FALSE='#'
AMDEP_TRUE=''
AMTAR='$${TAR-tar}'
AM_BACKSLASH='\'
AM_DEFAULT_V='$(AM_DEFAULT_VERBOSITY)'
AM_DEFAULT_VERBOSITY='1'
AM_V='$(V)'
AR='ar'
AUTOCONF='${SHELL} /home/snowwolf725/rtorrent_with_ipv6/libtorrent-0.13.4/missing autoconf'
AUTOHEADER='${SHELL} /home/snowwolf725/rtorrent_with_ipv6/libtorrent-0.13.4/missing autoheader'
AUTOMAKE='${SHELL} /home/snowwolf725/rtorrent_with_ipv6/libtorrent-0.13.4/missing automake-1.14'
AWK='gawk'
CC='gcc'
CCDEPMODE='depmode=gcc3'
CFLAGS='-g -O2 -pthread'
CPP='gcc -E'
CPPFLAGS=''
CPPUNIT_CFLAGS=''
CPPUNIT_CONFIG='/usr/bin/cppunit-config'
CPPUNIT_LIBS='-L/usr/lib/x86_64-linux-gnu -lcppunit -ldl'
CXX='g++'
CXXCPP='g++ -E'
CXXDEPMODE='depmode=gcc3'
CXXFLAGS='-g -O2 -g -DDEBUG -fvisibility=hidden -pthread  '
CYGPATH_W='echo'
DEFS='-DHAVE_CONFIG_H'
DEPDIR='.deps'
DLLTOOL='false'
DSYMUTIL=''
DUMPBIN=''
ECHO_C=''
ECHO_N='-n'
ECHO_T=''
EGREP='/bin/grep -E'
EXEEXT=''
FGREP='/bin/grep -F'
GREP='/bin/grep'
INSTALL_DATA='${INSTALL} -m 644'
INSTALL_PROGRAM='${INSTALL}'
INSTALL_SCRIPT='${INSTALL}'
INSTALL_STRIP_PROGRAM='$(install_sh) -c -s'
LD='/usr/bin/ld -m elf_x86_64'
LDFLAGS=''
LIBOBJS=''
LIBS='  -lcrypto  '
LIBTOOL='$(SHELL) $(top_builddir)/libtool'
LIBTORRENT_CFLAGS=''
LIBTORRENT_CURRENT='18'
LIBTORRENT_INTERFACE_VERSION_INFO='18:0:0'
LIBTORRENT_INTERFACE_VERSION_NO='18.0.0'
LIBTORRENT_LIBS='-ltorrent'
LIPO=''
LN_S='ln -s'
LTLIBOBJS=''
MAKEINFO='${SHELL} /home/snowwolf725/rtorrent_with_ipv6/libtorrent-0.13.4/missing makeinfo'
MANIFEST_TOOL=':'
MKDIR_P='/bin/mkdir -p'
NM='/usr/bin/nm -B'
NMEDIT=''
OBJDUMP='objdump'
OBJEXT='o'
OPENSSL_CFLAGS=' '
OPENSSL_LIBS='-lcrypto  '
OTOOL64=''
OTOOL=''
PACKAGE='libtorrent'
PACKAGE_BUGREPORT='sundell.software@gmail.com'
PACKAGE_NAME='libtorrent'
PACKAGE_STRING='libtorrent 0.13.4'
PACKAGE_TARNAME='libtorrent'
PACKAGE_URL=''
PACKAGE_VERSION='0.13.4'
PATH_SEPARATOR=':'
PKG_CONFIG='/usr/bin/pkg-config'
PKG_CONFIG_LIBDIR=''
PKG_CONFIG_PATH=''
PTHREAD_CC='gcc'
PTHREAD_CFLAGS='-pthread'
PTHREAD_LIBS=''
RANLIB='ranlib'
SED='/bin/sed'
SET_MAKE=''
SHELL='/bin/sh'
STRIP='strip'
VERSION='0.13.4'
ac_ct_AR='ar'
ac_ct_CC='gcc'
ac_ct_CXX='g++'
ac_ct_DUMPBIN=''
am__EXEEXT_FALSE=''
am__EXEEXT_TRUE='#'
am__fastdepCC_FALSE='#'
am__fastdepCC_TRUE=''
am__fastdepCXX_FALSE='#'
am__fastdepCXX_TRUE=''
am__include='include'
am__isrc=''
am__leading_dot='.'
am__nodep='_no'
am__quote=''
am__tar='$${TAR-tar} chof - "$$tardir"'
am__untar='$${TAR-tar} xf -'
ax_pthread_config=''
bindir='${exec_prefix}/bin'
build='x86_64-unknown-linux-gnu'
build_alias=''
build_cpu='x86_64'
build_os='linux-gnu'
build_vendor='unknown'
datadir='${datarootdir}'
datarootdir='${prefix}/share'
docdir='${datarootdir}/doc/${PACKAGE_TARNAME}'
dvidir='${docdir}'
exec_prefix='${prefix}'
host='x86_64-unknown-linux-gnu'
host_alias=''
host_cpu='x86_64'
host_os='linux-gnu'
host_vendor='unknown'
htmldir='${docdir}'
includedir='${prefix}/include'
infodir='${datarootdir}/info'
install_sh='${SHELL} /home/snowwolf725/rtorrent_with_ipv6/libtorrent-0.13.4/install-sh'
libdir='${exec_prefix}/lib'
libexecdir='${exec_prefix}/libexec'
localedir='${datarootdir}/locale'
localstatedir='${prefix}/var'
mandir='${datarootdir}/man'
mkdir_p='$(MKDIR_P)'
oldincludedir='/usr/include'
pdfdir='${docdir}'
prefix='/usr/local'
program_transform_name='s,x,x,'
psdir='${docdir}'
sbindir='${exec_prefix}/sbin'
sharedstatedir='${prefix}/com'
sysconfdir='${prefix}/etc'
target_alias=''

## ----------- ##
## confdefs.h. ##
## ----------- ##

/* confdefs.h */
#define PACKAGE_NAME "libtorrent"
#define PACKAGE_TARNAME "libtorrent"
#define PACKAGE_VERSION "0.13.4"
#define PACKAGE_STRING "libtorrent 0.13.4"
#define PACKAGE_BUGREPORT "sundell.software@gmail.com"
#define PACKAGE_URL ""
#define STDC_HEADERS 1
#define HAVE_SYS_TYPES_H 1
#define HAVE_SYS_STAT_H 1
#define HAVE_STDLIB_H 1
#define HAVE_STRING_H 1
#define HAVE_MEMORY_H 1
#define HAVE_STRINGS_H 1
#define HAVE_INTTYPES_H 1
#define HAVE_STDINT_H 1
#define HAVE_UNISTD_H 1
#define HAVE_DLFCN_H 1
#define LT_OBJDIR ".libs/"
#define PEER_NAME "-lt0D40-"
#define PEER_VERSION "lt\x0D\x40"
#define PACKAGE "libtorrent"
#define VERSION "0.13.4"
#define IS_LITTLE_ENDIAN 1
#define HAVE_TR1 1
#define KQUEUE_SOCKET_ONLY 1
#define USE_EPOLL 1
#define HAVE_FALLOCATE 1
#define SIZEOF_LONG 8
#define DEFAULT_ADDRESS_SPACE_SIZE 4096
#define HAVE_SYS_VFS_H 1
#define HAVE_SYS_STATVFS_H 1
#define HAVE_SYS_STATFS_H 1
#define FS_STAT_FD fstatvfs(fd, &m_stat) == 0
#define FS_STAT_FN statvfs(fn, &m_stat) == 0
#define FS_STAT_STRUCT struct statvfs
#define FS_STAT_SIZE_TYPE unsigned long
#define FS_STAT_COUNT_TYPE fsblkcnt_t
#define FS_STAT_BLOCK_SIZE (m_stat.f_frsize)
#define SUPPORT_ATTRIBUTE_VISIBILITY 1
#define HAVE_PTHREAD_PRIO_INHERIT 1
#define HAVE_PTHREAD 1
#define USE_OPENSSL 1
#define USE_OPENSSL_SHA 1
#define HAVE_POSIX_MEMALIGN 1
#define USE_MADVISE 1
#define LT_SMP_CACHE_BYTES 128
#define lt_cacheline_aligned __attribute__((__aligned__(LT_SMP_CACHE_BYTES)))
#define USE_BUILTIN_POPCOUNT 1
#define USE_EXECINFO 1
#define HAVE_PTHREAD_H 1
#define HAS_PTHREAD_SETNAME_NP_GENERIC 1
#define USE_MINCORE 1
#define USE_MINCORE_UNSIGNED 1
#define RAK_USE_INET6 1
#define LT_INSTRUMENTATION 1
#define HAVE_CONFIG_H 1
#define SUPPORT_ATTRIBUTE_UNUSED 1
#define __UNUSED __attribute__((unused))

configure: exit 0
